<svg xmlns="http://www.w3.org/2000/svg" id="svg7384" width="22" height="22" version="1.1" style="enable-background:new">
 <defs id="defs7386">
  <style id="current-color-scheme" type="text/css">
   .ColorScheme-Text { color:#d3dae3; } .ColorScheme-Highlight { color:#3497da; } .ColorScheme-ButtonBackground { color:#d3dae3; }
  </style>
 </defs>
 <g id="distribute-horizontal-x" transform="translate(-465.0002,65.00334)">
  <rect id="rect3338" width="22" height="22" x="465" y="-65" style="opacity:0;fill:#0000ff;fill-rule:evenodd;stroke:none;stroke-width:1px;stroke-linecap:butt;stroke-linejoin:miter;stroke-opacity:1"/>
  <path id="path5837" class="ColorScheme-Text" d="m 473.0002,-57.00334 -5,3 5,3 0,-2 6,0 0,2 5,-3 -5,-3 0,2 -6,0 0,-2 z" style="opacity:1;fill:currentColor;fill-opacity:1;stroke:none"/>
 </g>
 <g id="16-16-distribute-horizontal-x" transform="translate(-465.0002,65.00334)">
  <rect id="rect4142" width="16" height="16" x="489" y="-59" style="opacity:0;fill:#0000ff;fill-rule:evenodd;stroke:none;stroke-width:1px;stroke-linecap:butt;stroke-linejoin:miter;stroke-opacity:1"/>
  <path id="path4144" class="ColorScheme-Text" d="m 494.0002,-54.00334 -4,2.999999 4,3.000001 0,-2.000001 6,0 0,2.000001 4,-3.000001 -4,-2.999999 0,2.000001 -6,0 z" style="opacity:1;fill:currentColor;fill-opacity:1;stroke:none"/>
 </g>
</svg>
